scom-cam colab
…
# load datasets
fn = "../csv/haidi-all.tsv"
data = read.table(fn, sep='\t', header=T, strip.white=TRUE, stringsAsFactors=FALSE) |> as_tibble()

data |> group_by(content_id, coder_id) |> summarize(count=n())

`summarise()` has grouped output by 'content_id'. You can override using the
`.groups` argument.

# A tibble: 60 × 3
# Groups:   content_id [40]
   content_id coder_id count
   <chr>      <chr>    <int>
 1 DK001      A            1
 2 DK001      B            1
 3 DK002      A            1
 4 DK002      B            1
 5 DK003      A            1
 6 DK003      B            1
 7 DK004      A            1
 8 DK004      B            1
 9 DK005      A            1
10 DK005      B            1
# … with 50 more rows
…
231003: all datasets

# load datasets
fn = "../csv/haidi-dk.tsv"
data_dk = read.table(fn, sep='\t', header=T, strip.white=TRUE, stringsAsFactors=FALSE)
fn = "../csv/haidi-fi.tsv"
data_fi = read.table(fn, sep='\t', header=T, strip.white=TRUE, stringsAsFactors=FALSE)
fn = "../csv/haidi-se.tsv"
data_se = read.table(fn, sep='\t', header=T, strip.white=TRUE, stringsAsFactors=FALSE)

data = rbind(data_dk, data_fi, data_se)
data |> as_tibble()

# A tibble: 60 × 31
   coder_id conten…¹    V3    V4    V5    V6    V7    V8    V9   V12   V13   V14
   <chr>    <chr>    <int> <int> <int> <int> <int> <int> <int> <int> <int> <int>
 1 A        DK001      208     4     3     2     1     0    99     0     0     0
 2 A        DK002      206     4     3     2     4     0    99     0     0     0
 3 A        DK003      208     1     2     0    99     0    99     0     0     0
 4 A        DK004      206     1     3     1     3     0    99     0     0     1
 5 A        DK005      206     1     2     0    99     0    99     0     0     0
 6 A        DK006      206     1     3     1     3     0    99     0     0     0
 7 A        DK007      206     1     3     0    99     0    99     0     0     0
 8 A        DK008      206     1     2     1     3     0    99     0     0     0
 9 A        DK009      206     1     2     1     3     0    99     1     0     0
10 A        DK010      206     1     1     0    99    99    99     0     0     0
# … with 50 more rows, 19 more variables: V15 <int>, V18 <int>, V19 <int>,
#   V20 <int>, V21 <int>, V22 <int>, V23 <int>, V24 <int>, V25 <int>,
#   V26 <int>, V27 <int>, V28 <int>, V29 <int>, V30 <int>, V31 <int>,
#   V32 <int>, V33 <int>, V34 <int>, some <chr>, and abbreviated variable name
#   ¹​content_id
…
